{
  "name": "default",
  "type": "postgres",
  "host": "localhost",
  "port": 5432,
  "username": "postgres",
  "password": "24434P@$$word!92",
  "database": "typegraphql-example",
  "synchronize": true,
  "logging": true,
  "entities": [
    "src/entity/*.*"
  ]
}